import Foundation

import Glibc


func removeDuplicate (unique: [Int]) -> [Int]

{
	
var unique1:[Int] = []

	for i in unique 

	{
    
		if !unique1.contains(i)
    
		{
        
			unique1.append(i)
    
		}
    
	}
	
return unique1

}



let f = removeDuplicate(unique: [1,2,2])

print(f)